inst#,actual,predicted,error,prediction
1,2:OTH,3:GRP,+,0.667
2,3:GRP,3:GRP,,0.667
3,1:IND,1:IND,,0.667
4,2:OTH,1:IND,+,0.667
5,1:IND,1:IND,,0.667
6,1:IND,3:GRP,+,0.667
7,3:GRP,1:IND,+,0.667
8,1:IND,1:IND,,0.667
9,1:IND,1:IND,,0.667
10,1:IND,1:IND,,0.667
11,3:GRP,3:GRP,,0.667
12,1:IND,1:IND,,0.667
13,3:GRP,3:GRP,,0.667
14,2:OTH,1:IND,+,0.667
15,3:GRP,1:IND,+,0.333
16,1:IND,1:IND,,0.667
17,3:GRP,3:GRP,,0.667
18,3:GRP,1:IND,+,0.333
19,2:OTH,3:GRP,+,0.667
20,2:OTH,3:GRP,+,0.667
21,1:IND,3:GRP,+,0.667
22,3:GRP,3:GRP,,0.667
23,1:IND,1:IND,,0.667
24,1:IND,3:GRP,+,0.667
25,3:GRP,1:IND,+,0.667
26,1:IND,1:IND,,0.667
27,1:IND,3:GRP,+,0.667
28,2:OTH,3:GRP,+,0.667
29,2:OTH,1:IND,+,0.333
30,1:IND,3:GRP,+,0.667
31,2:OTH,1:IND,+,0.333
32,1:IND,3:GRP,+,0.667
33,1:IND,1:IND,,0.667
34,1:IND,1:IND,,0.667
35,1:IND,1:IND,,0.667
36,3:GRP,3:GRP,,0.667
37,1:IND,1:IND,,0.667
38,1:IND,1:IND,,0.667
39,1:IND,1:IND,,0.667
40,3:GRP,1:IND,+,0.333
41,1:IND,1:IND,,0.667
42,3:GRP,1:IND,+,0.667
43,3:GRP,3:GRP,,0.667
44,3:GRP,3:GRP,,0.667
45,3:GRP,3:GRP,,0.667
46,1:IND,1:IND,,0.667
47,1:IND,3:GRP,+,0.667
48,1:IND,1:IND,,0.333
49,3:GRP,3:GRP,,0.667
50,1:IND,3:GRP,+,0.667
51,3:GRP,1:IND,+,0.667
52,1:IND,1:IND,,0.667
53,3:GRP,1:IND,+,0.667
54,2:OTH,1:IND,+,0.333
55,3:GRP,1:IND,+,0.667
56,1:IND,1:IND,,0.667
57,3:GRP,3:GRP,,0.667
58,2:OTH,1:IND,+,0.667
59,1:IND,1:IND,,0.667
60,3:GRP,1:IND,+,0.333
61,3:GRP,3:GRP,,0.667
62,1:IND,1:IND,,0.667
63,2:OTH,3:GRP,+,0.667
64,1:IND,1:IND,,0.667
65,1:IND,1:IND,,0.667
66,2:OTH,1:IND,+,0.667
67,1:IND,1:IND,,0.667
68,3:GRP,3:GRP,,0.667
69,3:GRP,3:GRP,,0.667
70,2:OTH,1:IND,+,0.667
71,1:IND,1:IND,,0.667
72,3:GRP,3:GRP,,0.667
73,3:GRP,1:IND,+,0.667
74,3:GRP,3:GRP,,0.667
75,2:OTH,1:IND,+,0.667
76,1:IND,1:IND,,0.667
77,2:OTH,1:IND,+,0.667
78,1:IND,1:IND,,0.667
79,3:GRP,3:GRP,,0.667
80,2:OTH,3:GRP,+,0.667
81,3:GRP,1:IND,+,0.667
82,2:OTH,1:IND,+,0.333
83,1:IND,1:IND,,0.667
84,1:IND,1:IND,,0.667
85,3:GRP,3:GRP,,0.667
86,1:IND,1:IND,,0.667
87,3:GRP,3:GRP,,0.667
88,1:IND,1:IND,,0.667
89,1:IND,1:IND,,0.667
90,3:GRP,1:IND,+,0.667
91,1:IND,1:IND,,0.667
92,3:GRP,3:GRP,,0.667
93,1:IND,1:IND,,0.667
94,3:GRP,3:GRP,,0.667
95,1:IND,3:GRP,+,0.667
96,3:GRP,3:GRP,,0.667
97,3:GRP,3:GRP,,0.667
98,1:IND,1:IND,,0.667
99,3:GRP,3:GRP,,0.667
100,3:GRP,3:GRP,,0.667
101,1:IND,1:IND,,0.667
102,3:GRP,1:IND,+,0.667
103,3:GRP,3:GRP,,0.667
104,3:GRP,2:OTH,+,0.667
105,1:IND,1:IND,,0.667
106,1:IND,1:IND,,0.667
107,3:GRP,1:IND,+,0.667
108,2:OTH,1:IND,+,0.667
109,2:OTH,2:OTH,,0.667
110,3:GRP,2:OTH,+,0.667
111,1:IND,1:IND,,0.667
112,1:IND,2:OTH,+,0.667
113,3:GRP,1:IND,+,0.667
114,2:OTH,3:GRP,+,0.667
115,1:IND,3:GRP,+,0.667
116,1:IND,2:OTH,+,0.667
117,1:IND,3:GRP,+,0.667
118,2:OTH,1:IND,+,0.667
119,1:IND,1:IND,,0.667
120,2:OTH,3:GRP,+,0.667
121,1:IND,1:IND,,0.667
122,1:IND,1:IND,,0.667
123,3:GRP,3:GRP,,0.667
124,3:GRP,2:OTH,+,0.667
125,2:OTH,1:IND,+,0.667
126,1:IND,2:OTH,+,0.667
127,3:GRP,3:GRP,,0.667
128,1:IND,1:IND,,0.667
129,2:OTH,1:IND,+,0.667
130,3:GRP,1:IND,+,0.667
131,1:IND,1:IND,,0.667
132,1:IND,1:IND,,0.667
133,1:IND,1:IND,,0.667
134,1:IND,1:IND,,0.667
135,3:GRP,3:GRP,,0.667
136,3:GRP,3:GRP,,0.667
137,1:IND,1:IND,,0.667
138,1:IND,1:IND,,0.667
139,2:OTH,1:IND,+,0.667
140,2:OTH,3:GRP,+,0.667
141,3:GRP,1:IND,+,0.667
142,2:OTH,2:OTH,,0.667
143,1:IND,1:IND,,0.667
144,2:OTH,3:GRP,+,0.667
145,3:GRP,1:IND,+,0.667
146,1:IND,1:IND,,0.667
147,3:GRP,3:GRP,,0.667
148,3:GRP,3:GRP,,0.667
149,1:IND,1:IND,,0.667
150,3:GRP,1:IND,+,0.667
151,2:OTH,1:IND,+,0.667
152,1:IND,1:IND,,0.667
153,1:IND,1:IND,,0.667
154,1:IND,1:IND,,0.667
155,3:GRP,1:IND,+,0.667
156,1:IND,1:IND,,0.667
157,3:GRP,2:OTH,+,0.667
158,3:GRP,3:GRP,,0.667
159,1:IND,1:IND,,0.667
160,3:GRP,3:GRP,,0.667
161,3:GRP,3:GRP,,0.667
162,3:GRP,3:GRP,,0.667
163,3:GRP,3:GRP,,0.667
164,2:OTH,1:IND,+,0.667
165,1:IND,1:IND,,0.667
166,3:GRP,3:GRP,,0.667
167,1:IND,1:IND,,0.667
168,3:GRP,3:GRP,,0.667
169,2:OTH,3:GRP,+,0.667
170,1:IND,1:IND,,0.667
171,1:IND,1:IND,,0.667
172,1:IND,1:IND,,0.667
173,1:IND,1:IND,,0.667
174,1:IND,1:IND,,0.667
175,1:IND,1:IND,,0.667
176,1:IND,1:IND,,0.667
177,1:IND,3:GRP,+,0.667
178,1:IND,1:IND,,0.667
179,1:IND,1:IND,,0.667
180,1:IND,3:GRP,+,0.667
181,1:IND,1:IND,,0.667
182,2:OTH,1:IND,+,0.667
183,1:IND,1:IND,,0.667
184,3:GRP,3:GRP,,0.667
185,1:IND,1:IND,,0.667
186,3:GRP,3:GRP,,0.667
187,1:IND,1:IND,,0.667
188,3:GRP,3:GRP,,0.667
189,1:IND,3:GRP,+,0.667
190,3:GRP,3:GRP,,0.667
191,1:IND,3:GRP,+,0.667
192,2:OTH,2:OTH,,0.667
193,2:OTH,2:OTH,,0.667
194,1:IND,1:IND,,0.667
195,3:GRP,3:GRP,,0.667
196,2:OTH,3:GRP,+,0.667
197,1:IND,1:IND,,0.667
198,3:GRP,1:IND,+,0.667
199,3:GRP,1:IND,+,0.667
200,3:GRP,3:GRP,,0.667
201,1:IND,1:IND,,0.667
202,1:IND,1:IND,,0.667
203,3:GRP,2:OTH,+,0.667
204,3:GRP,3:GRP,,0.667
205,1:IND,1:IND,,0.667
206,1:IND,1:IND,,0.667
207,3:GRP,3:GRP,,0.667
208,1:IND,1:IND,,0.667
209,1:IND,1:IND,,0.667
210,3:GRP,1:IND,+,0.667
211,1:IND,2:OTH,+,0.667
212,3:GRP,3:GRP,,0.667
213,3:GRP,1:IND,+,0.667

